\relax 
\providecommand*{\memsetcounter}[2]{}
\@nameuse{bbl@beforestart}
\abx@aux@refcontext{nty/global//global/global}
\abx@aux@cite{Rix1992}
\abx@aux@segm{0}{0}{Rix1992}
\@writefile{toc}{\boolfalse {citerequest}\boolfalse {citetracker}\boolfalse {pagetracker}\boolfalse {backtracker}\relax }
\@writefile{lof}{\boolfalse {citerequest}\boolfalse {citetracker}\boolfalse {pagetracker}\boolfalse {backtracker}\relax }
\@writefile{lot}{\boolfalse {citerequest}\boolfalse {citetracker}\boolfalse {pagetracker}\boolfalse {backtracker}\relax }
\babel@aux{english}{}
\@writefile{toc}{\defcounter {refsection}{0}\relax }\@writefile{toc}{\contentsline {chapter}{\chapternumberline {1}Text}{1}\protected@file@percent }
\babel@aux{greek}{}
\newlabel{vs:1}{{\M@TitleReference {1}{Text}}{1}}
\newlabel{vs:2}{{\M@TitleReference {2}{Text}}{1}}
\newlabel{vs:3}{{\M@TitleReference {3}{Text}}{1}}
\newlabel{vs:4}{{\M@TitleReference {4}{Text}}{1}}
\newlabel{vs:5}{{\M@TitleReference {5}{Text}}{1}}
\newlabel{vs:5}{{\M@TitleReference {6}{Text}}{1}}
\newlabel{vs:7}{{\M@TitleReference {7}{Text}}{1}}
\newlabel{vs:8}{{\M@TitleReference {8}{Text}}{1}}
\newlabel{vs:9}{{\M@TitleReference {9}{Text}}{1}}
\newlabel{vs:10}{{\M@TitleReference {10}{Text}}{1}}
\newlabel{vs:11}{{\M@TitleReference {11}{Text}}{1}}
\newlabel{vs:12}{{\M@TitleReference {12}{Text}}{1}}
\newlabel{vs:13}{{\M@TitleReference {13}{Text}}{1}}
\newlabel{vs:14}{{\M@TitleReference {14}{Text}}{1}}
\newlabel{vs:15}{{\M@TitleReference {15}{Text}}{1}}
\newlabel{vs:16}{{\M@TitleReference {16}{Text}}{1}}
\newlabel{vs:17}{{\M@TitleReference {17}{Text}}{1}}
\babel@aux{english}{}
\abx@aux@cite{Rix1992}
\abx@aux@segm{0}{0}{Rix1992}
\abx@aux@cite{West1970}
\abx@aux@segm{0}{0}{West1970}
\abx@aux@cite{Probert2006}
\abx@aux@segm{0}{0}{Probert2006}
\abx@aux@cite{Probert2015}
\abx@aux@segm{0}{0}{Probert2015}
\abx@aux@cite{Probert2015}
\abx@aux@segm{0}{0}{Probert2015}
\abx@aux@cite{Probert2015}
\abx@aux@segm{0}{0}{Probert2015}
\@writefile{toc}{\defcounter {refsection}{0}\relax }\@writefile{toc}{\contentsline {chapter}{\chapternumberline {2}Comentário}{2}\protected@file@percent }
\abx@aux@page{1}{2}
\abx@aux@page{2}{2}
\abx@aux@page{3}{2}
\abx@aux@page{4}{2}
\abx@aux@page{6}{2}
\abx@aux@cite{Probert2015}
\abx@aux@segm{0}{0}{Probert2015}
\abx@aux@cite{Probert2015}
\abx@aux@segm{0}{0}{Probert2015}
\abx@aux@cite{Probert2015}
\abx@aux@segm{0}{0}{Probert2015}
\abx@aux@cite{Kölligan2007}
\abx@aux@segm{0}{0}{Kölligan2007}
\abx@aux@cite{Buck1982}
\abx@aux@segm{0}{0}{Buck1982}
\abx@aux@cite{Colvin2007}
\abx@aux@segm{0}{0}{Colvin2007}
\abx@aux@refcontextdefaultsdone
\abx@aux@defaultrefcontext{0}{Colvin2007}{nty/global//global/global}
\abx@aux@defaultrefcontext{0}{Kölligan2007}{nty/global//global/global}
\abx@aux@defaultrefcontext{0}{Probert2006}{nty/global//global/global}
\abx@aux@defaultrefcontext{0}{Probert2015}{nty/global//global/global}
\abx@aux@defaultrefcontext{0}{Rix1992}{nty/global//global/global}
\abx@aux@defaultrefcontext{0}{West1970}{nty/global//global/global}
\abx@aux@page{7}{3}
\abx@aux@page{8}{3}
\abx@aux@page{9}{3}
\abx@aux@page{10}{3}
\@writefile{toc}{\defcounter {refsection}{0}\relax }\@writefile{toc}{\contentsline {chapter}{References}{3}\protected@file@percent }
\abx@aux@page{12}{3}
\abx@aux@page{13}{3}
\abx@aux@page{14}{3}
\abx@aux@page{15}{3}
\abx@aux@page{16}{3}
\abx@aux@page{17}{3}
\abx@aux@fnpage{11}{3}
\memsetcounter{lastsheet}{3}
\memsetcounter{lastpage}{3}
